tidyr, dplyr and purr
…
  3. `species [14778 x 15]`: number of trees per hectare in each plot, by
     species and size class
  
  4. `coordinates [11858 x 6]`: X and Y UTM coordinates of each plot.

---

# let's have a look at the data

```r
trees
```

```
## # A tibble: 111,756 x 12
##    Codi  Provincia Cla   Subclase Especie Rumbo  Dist    Fac    CD
##    <fct> <chr>     <fct> <fct>    <fct>   <dbl> <dbl>  <dbl> <dbl>
##  1 0800… 08        A     1        022         7  8.3   31.8     20
##  2 0800… 08        A     1        476        38  9.1   31.8     35
##  3 0800… 08        A     1        021        25  7     31.8     25
##  4 0800… 08        A     1        021        28  8.89  31.8     15
##  5 0800… 08        A     1        021        19 11.2   14.1     35
##  6 0800… 08        A     1        021        32 12     14.1     35
##  7 0800… 08        A     1        243        40  7.8   31.8     15
##  8 0800… 08        A     1        045        16  5.09  31.8     20
##  9 0800… 08        A     1        243        47 26.9    5.09    65
## 10 0800… 08        A     1        022        44  2.7  127.      15
## # … with 111,746 more rows, and 3 more variables: DiamIf3 <dbl>,
## #   DiamIf2 <dbl>, HeiIf3 <dbl>
```
…
- first argument: data (as data.frame or tbl_df)
- the rest of arguments specify what to do with the data frame
- output is always another tbl_df
- unless we are assigning (`<-`), never modifies the original data frame

---

# Selecting rows (`filter`)

```r
filter(trees, Dist < 3)
```

```
## # A tibble: 11,601 x 12
##    Codi  Provincia Cla   Subclase Especie Rumbo  Dist   Fac    CD
##    <fct> <chr>     <fct> <fct>    <fct>   <dbl> <dbl> <dbl> <dbl>
##  1 0800… 08        A     1        022        44  2.7   127.    15
##  2 0800… 08        A     1        021         9  1     127.    30
##  3 0800… 08        A     1        021         2  0.6   127.    25
##  4 0800… 08        A     1        021        17  2.59  127.    15
##  5 0800… 08        A     1        022         5  2.29  127.    20
##  6 0800… 08        A     1        022        10  2.09  127.    15
##  7 0801… 08        A     1        476         3  2.29  127.    10
##  8 0801… 08        A     1        243        24  2.7   127.    10
##  9 0801… 08        A     1        243       103  2.79  127.    10
## 10 0801… 08        A     1        021         2  2     127.    25
## # … with 11,591 more rows, and 3 more variables: DiamIf3 <dbl>,
## #   DiamIf2 <dbl>, HeiIf3 <dbl>
```

---

# Selecting rows (`filter`)

```r
filter(trees, Provincia == '25')
```

```
## # A tibble: 35,665 x 12
##    Codi  Provincia Cla   Subclase Especie Rumbo  Dist    Fac    CD
##    <fct> <chr>     <fct> <fct>    <fct>   <dbl> <dbl>  <dbl> <dbl>
##  1 2500… 25        A     1        071        59 29.3    5.09    70
##  2 2500… 25        A     1        071        18 25.5    5.09    50
##  3 2500… 25        A     1        042        19 22.4    5.09    70
##  4 2500… 25        A     1        255        26  7.3   31.8     30
##  5 2500… 25        A     1        071        40  8.89  31.8     15
##  6 2500… 25        A     1        042       203  3.79 127.      15
##  7 2500… 25        A     1        071        34  7.4   31.8     50
##  8 2500… 25        A     1        031        51 21.5    5.09    55
##  9 2500… 25        A     1        071         4 13.5   14.1     50
## 10 2500… 25        A     1        073        40 10.3   14.1     20
## # … with 35,655 more rows, and 3 more variables: DiamIf3 <dbl>,
## #   DiamIf2 <dbl>, HeiIf3 <dbl>
```

---

# Selecting rows (`filter`)

```r
filter(trees, CD %in% c(45, 70))
```

```
## # A tibble: 2,552 x 12
##    Codi  Provincia Cla   Subclase Especie Rumbo  Dist   Fac    CD
##    <fct> <chr>     <fct> <fct>    <fct>   <dbl> <dbl> <dbl> <dbl>
##  1 0800… 08        A     1        071         9 26.9   5.09    45
##  2 0801… 08        A     1        021        19 11.1  14.1     70
##  3 0806… 08        A     1        042        43  7.09 31.8     45
##  4 0807… 08        A     1        042        16 15.8   5.09    45
##  5 0807… 08        A     1        042         3  9.69 31.8     45
##  6 0812… 08        A     1        024        93 10.8  14.1     45
##  7 0812… 08        A     1        024        87 10.1  14.1     45
##  8 0813… 08        A     1        026        16  8.6  31.8     45
##  9 0814… 08        A     1        054        51  5.19 31.8     70
## 10 0819… 08        A     1        024         1 10.3  14.1     45
## # … with 2,542 more rows, and 3 more variables: DiamIf3 <dbl>,
## #   DiamIf2 <dbl>, HeiIf3 <dbl>
```
…
  1.2 Were measured **before** January 2001
  
  1.3 It took **more** than 2 hours to measure (7200s)

---

# Selecting columns (`select`)

```r
select(trees, DiamIf3)
```

```
## # A tibble: 111,756 x 1
##    DiamIf3
##      <dbl>
##  1    20.3
##  2    34  
##  3    24.8
##  4    16.8
##  5    34.0
##  6    33.1
##  7    15  
##  8    17.5
##  9    67.4
## 10    15.1
## # … with 111,746 more rows
```

---

# Selecting columns (`select`)

```r
select(trees, -Codi)
```

```
## # A tibble: 111,756 x 11
##    Provincia Cla   Subclase Especie Rumbo  Dist    Fac    CD DiamIf3
##    <chr>     <fct> <fct>    <fct>   <dbl> <dbl>  <dbl> <dbl>   <dbl>
##  1 08        A     1        022         7  8.3   31.8     20    20.3
##  2 08        A     1        476        38  9.1   31.8     35    34  
##  3 08        A     1        021        25  7     31.8     25    24.8
##  4 08        A     1        021        28  8.89  31.8     15    16.8
##  5 08        A     1        021        19 11.2   14.1     35    34.0
##  6 08        A     1        021        32 12     14.1     35    33.1
##  7 08        A     1        243        40  7.8   31.8     15    15  
##  8 08        A     1        045        16  5.09  31.8     20    17.5
##  9 08        A     1        243        47 26.9    5.09    65    67.4
## 10 08        A     1        022        44  2.7  127.      15    15.1
## # … with 111,746 more rows, and 2 more variables: DiamIf2 <dbl>,
## #   HeiIf3 <dbl>
```

---

# Selecting columns (`select`)

```r
select(trees, Codi:Cla)
```

```
## # A tibble: 111,756 x 3
##    Codi   Provincia Cla  
##    <fct>  <chr>     <fct>
##  1 080001 08        A    
##  2 080002 08        A    
##  3 080003 08        A    
##  4 080004 08        A    
##  5 080006 08        A    
##  6 080007 08        A    
##  7 080008 08        A    
##  8 080009 08        A    
##  9 080010 08        A    
## 10 080013 08        A    
## # … with 111,746 more rows
```
…
---

# Selecting columns (`select`)

```r
select(trees, starts_with('Diam'))
```

```
## # A tibble: 111,756 x 2
##    DiamIf3 DiamIf2
##      <dbl>   <dbl>
##  1    20.3    18.9
##  2    34      32.4
##  3    24.8    17.6
##  4    16.8    12.6
##  5    34.0    30.9
##  6    33.1    28.2
##  7    15      13.2
##  8    17.5    15.3
##  9    67.4    66.8
## 10    15.1    12.6
## # … with 111,746 more rows
```
…
## Exercise 2

Think if three or four ways to select the variables that define the start and finish date
of plot measuring

---

# Sorting rows (`arrange`)

```r
arrange(trees, Dist)
```

```
## # A tibble: 111,756 x 12
##    Codi  Provincia Cla   Subclase Especie Rumbo  Dist   Fac    CD
##    <fct> <chr>     <fct> <fct>    <fct>   <dbl> <dbl> <dbl> <dbl>
##  1 1706… 17        A     1        021        73   0    127.    15
##  2 2518… 25        A     1        025       174   0.3  127.    15
##  3 1706… 17        A     1        045       290   0.3  127.    10
##  4 0815… 08        A     1        025       176   0.3  127.    20
##  5 0810… 08        A     1        025       107   0.4  127.    15
##  6 4301… 43        A     1        024         0   0.4  127.    25
##  7 4306… 43        A     1        021        17   0.4  127.    15
##  8 1719… 17        A     1        079       150   0.4  127.    20
##  9 1719… 17        A     1        045        34   0.4  127.    25
## 10 1720… 17        A     1        045       160   0.4  127.    15
## # … with 111,746 more rows, and 3 more variables: DiamIf3 <dbl>,
## #   DiamIf2 <dbl>, HeiIf3 <dbl>
```

---

# Sorting rows (`arrange`)

```r
arrange(trees, desc(Dist))
```

```
## # A tibble: 111,756 x 12
##    Codi  Provincia Cla   Subclase Especie Rumbo  Dist   Fac    CD
##    <fct> <chr>     <fct> <fct>    <fct>   <dbl> <dbl> <dbl> <dbl>
##  1 2500… 25        A     1        042       398  36.5  5.09    70
##  2 2500… 25        A     1        031       350  34.8  5.09    70
##  3 2501… 25        A     1        022       158  33.9  5.09    50
##  4 2500… 25        A     1        021       110  33.6  5.09    60
##  5 2500… 25        A     1        031       238  33.5  5.09    50
##  6 2500… 25        A     1        071       214  32.9  5.09    70
##  7 2517… 25        A     1        045       163  32.8  5.09    60
##  8 2500… 25        A     1        031       119  32.5  5.09    65
##  9 2500… 25        A     1        031       390  32.1  5.09    45
## 10 1712… 17        A     1        071        38  31.4  5.09    60
## # … with 111,746 more rows, and 3 more variables: DiamIf3 <dbl>,
## #   DiamIf2 <dbl>, HeiIf3 <dbl>
```
…
  3.3 Which plots took longer to be measured?

---

# Transforming and adding new variables (`mutate`)

```r
mutate(
  trees,
  Dist = Dist * 100
)
```

```
## # A tibble: 111,756 x 12
##    Codi  Provincia Cla   Subclase Especie Rumbo  Dist    Fac    CD
##    <fct> <chr>     <fct> <fct>    <fct>   <dbl> <dbl>  <dbl> <dbl>
##  1 0800… 08        A     1        022         7  830.  31.8     20
##  2 0800… 08        A     1        476        38  910   31.8     35
##  3 0800… 08        A     1        021        25  700   31.8     25
##  4 0800… 08        A     1        021        28  889   31.8     15
##  5 0800… 08        A     1        021        19 1119   14.1     35
##  6 0800… 08        A     1        021        32 1200   14.1     35
##  7 0800… 08        A     1        243        40  780   31.8     15
##  8 0800… 08        A     1        045        16  509   31.8     20
##  9 0800… 08        A     1        243        47 2689    5.09    65
## 10 0800… 08        A     1        022        44  270  127.      15
## # … with 111,746 more rows, and 3 more variables: DiamIf3 <dbl>,
## #   DiamIf2 <dbl>, HeiIf3 <dbl>
```

---

# Transforming and adding new variables (`mutate`)

```r
mutate(
  trees,
  Alometria = DiamIf3 / HeiIf3,
  Alometria2 = Alometria * DiamIf2
)
```

```
## # A tibble: 111,756 x 14
##    Codi  Provincia Cla   Subclase Especie Rumbo  Dist    Fac    CD
##    <fct> <chr>     <fct> <fct>    <fct>   <dbl> <dbl>  <dbl> <dbl>
##  1 0800… 08        A     1        022         7  8.3   31.8     20
##  2 0800… 08        A     1        476        38  9.1   31.8     35
##  3 0800… 08        A     1        021        25  7     31.8     25
##  4 0800… 08        A     1        021        28  8.89  31.8     15
##  5 0800… 08        A     1        021        19 11.2   14.1     35
##  6 0800… 08        A     1        021        32 12     14.1     35
##  7 0800… 08        A     1        243        40  7.8   31.8     15
##  8 0800… 08        A     1        045        16  5.09  31.8     20
##  9 0800… 08        A     1        243        47 26.9    5.09    65
## 10 0800… 08        A     1        022        44  2.7  127.      15
## # … with 111,746 more rows, and 5 more variables: DiamIf3 <dbl>,
## #   DiamIf2 <dbl>, HeiIf3 <dbl>, Alometria <dbl>, Alometria2 <dbl>
```
…
--

  - Data in **tidy** format eases the processing and analysis, particularly in
    vectorized lenguages as R can be.

---

# tidyr

Data is not always organized...

```
## # A tibble: 5,769 x 22
##    iso2   year   m04  m514  m014 m1524 m2534 m3544 m4554 m5564   m65
##    <chr> <int> <int> <int> <int> <int> <int> <int> <int> <int> <int>
##  1 AD     1989    NA    NA    NA    NA    NA    NA    NA    NA    NA
##  2 AD     1990    NA    NA    NA    NA    NA    NA    NA    NA    NA
##  3 AD     1991    NA    NA    NA    NA    NA    NA    NA    NA    NA
##  4 AD     1992    NA    NA    NA    NA    NA    NA    NA    NA    NA
##  5 AD     1993    NA    NA    NA    NA    NA    NA    NA    NA    NA
##  6 AD     1994    NA    NA    NA    NA    NA    NA    NA    NA    NA
##  7 AD     1996    NA    NA     0     0     0     4     1     0     0
##  8 AD     1997    NA    NA     0     0     1     2     2     1     6
##  9 AD     1998    NA    NA     0     0     0     1     0     0     0
## 10 AD     1999    NA    NA     0     0     0     1     1     0     0
## # … with 5,759 more rows, and 11 more variables: mu <int>, f04 <int>,
## #   f514 <int>, f014 <int>, f1524 <int>, f2534 <int>, f3544 <int>,
## #   f4554 <int>, f5564 <int>, f65 <int>, fu <int>
```

---

# tidyr

.center[

```
## # A tibble: 35,750 x 5
##    iso2   year sex   age_group     n
##    <chr> <int> <chr> <chr>     <int>
##  1 AD     1996 f     014           0
##  2 AD     1996 f     1524          1
##  3 AD     1996 f     2534          1
##  4 AD     1996 f     3544          0
##  5 AD     1996 f     4554          0
##  6 AD     1996 f     5564          1
##  7 AD     1996 f     65            0
##  8 AD     1996 m     014           0
##  9 AD     1996 m     1524          0
## 10 AD     1996 m     2534          0
## # … with 35,740 more rows
```
…
