Introduction to the tidyverse: dplyr, tidyr and purrr
…
We can see, by typing glimpse(by_plot) that the resulting data frame is not different at all from the original, at least apparently. However, if we type class(by_plot) we see it has now a new class grouped_df.

###Exercise 5 What statistics could be of interest to characterize the diameter values of each plot? We can, for example, calculate te mean, minimum and maximum value, percentile 0.9 and interquartile range for each plot. We can also compute the number of trees measured in each plot and the number of different species, using the functions n() y n_distinct(x). In this case, the resulting data frame will have less rows, one per plot, and will only contain the new variables created.

summarise(by_plot,
          media = mean(DiamIf3),
          min = min (DiamIf3),
          max = max(DiamIf3),
          q90 = quantile(DiamIf3, 0.9),
          IQ = IQR(DiamIf3),
          n =n(),
          sps = n_distinct(Especie) )

## # A tibble: 7,713 x 8
##    Codi   media   min   max   q90    IQ     n   sps
##    <fct>  <dbl> <dbl> <dbl> <dbl> <dbl> <int> <int>
##  1 080001  26.3  13.4  38    34.4  4.15    15     1
##  2 080002  35.2  24.8  44.4  43.0 10.2     13     3
##  3 080003  32.0  14.2  51    46.1 12.2      7     2
##  4 080004  24.3  16.8  31.7  30.2  7.42     2     1
##  5 080005  28.4  16.2  59.8  39.7 15.3     12     3
##  6 080006  35.9  14    55.9  52.3 17.9     23     2
##  7 080007  30.8  15.2  63.6  49.4 12.3     35     2
##  8 080008  16.0   9    21.4  17.8  2.05    11     1
##  9 080009  16.7   9    36.0  24    3.88    16     2
## 10 080010  31.6   9.2  95.5  61.5 18.2     13     3
## #  with 7,703 more rows
…
###Exercise 6 Lets do some exercises. Using the pipe operator, lets create pipelines to solve the next exercises:

Ex.6.1 Which plots have the greatest average growth between IFN2 and IFN3?

We first define the data frame we will work with. THEN (%>%) we create a new variable with the growth of each tree, THEN we group by plot, THEN we calculate, for each plot, the mean growth, and THEN we arrange the results in decreasing order. The resulting code would be:

trees %>%
    mutate(growth=DiamIf3-DiamIf2) %>%
    group_by(Codi) %>%
    summarise(av_growth=mean(growth), n=n()) %>%
    arrange(desc(av_growth))

## # A tibble: 7,713 x 3
##    Codi   av_growth     n
##    <fct>      <dbl> <int>
##  1 171089      23.1     3
##  2 170819      21.6     1
##  3 172607      17.6     6
##  4 172216      17.4     6
##  5 172690      16.0    17
##  6 171682      15.4     6
##  7 083267      15.3     1
##  8 431363      15.1     4
##  9 171664      14.8     5
## 10 171976      14.4     1
## #  with 7,703 more rows

Ex.6.2 Which is the plot with highest species richness?

First, we define thedata frame (trees), THEN we group by Code, THEN we determine the number of species per plot and THEN we arrange in decreasing order:

trees %>%
    group_by(Codi) %>%
    summarise (n_species=n_distinct(Especie)) %>%
    arrange(desc(n_species))

## # A tibble: 7,713 x 2
##    Codi   n_species
##    <fct>      <int>
##  1 170195         9
##  2 171036         9
##  3 170218         8
##  4 170121         7
##  5 170596         7
##  6 170635         7
##  7 170799         7
##  8 171398         7
##  9 171481         7
## 10 172650         7
## #  with 7,703 more rows
…
Lets see one last example:

*Ex.7.3 Select those species of the IFN3 occupied by pure Pinus nigra stands (Especie = 025)

Note: a forest is considered as pure stand if more than 80% of their Basal Area corresponds to a single species. Lets see how we would do that:

trees %>%
    group_by(Codi,Especie) %>%
    summarise(BA_sp= sum(BAIf3)) %>%
    group_by(Codi) %>%
    mutate(BA_tot = sum(BA_sp),
           ratio= BA_sp/BA_tot) %>%
    filter(Especie=="025", ratio >0.8)

## # A tibble: 648 x 5
## # Groups:   Codi [648]
##    Codi   Especie BA_sp BA_tot ratio
##    <fct>  <fct>   <dbl>  <dbl> <dbl>
##  1 080132 025     41.4   49.9  0.830
##  2 080307 025     51.2   54.8  0.933
##  3 080313 025     28.1   35.0  0.804
##  4 080318 025     23.7   26.6  0.894
##  5 080322 025     29.7   32.3  0.919
##  6 080323 025      1.61   1.61 1    
##  7 080324 025     18.2   19.7  0.924
##  8 080325 025     43.8   44.6  0.982
##  9 080326 025      6.01   6.01 1    
## 10 080328 025     62.1   65.7  0.945
## #  with 638 more rows
…
We could use do to obtaine the first five lines of each plot, or each species:

trees %>%
    group_by(Codi) %>%
    do(head(., 5))

## # A tibble: 35,457 x 14
## # Groups:   Codi [7,713]
##    Codi  Provincia Especie Rumbo  Dist      N    CD DiamIf3 DiamIf2 HeiIf3
##    <fct> <chr>     <fct>   <dbl> <dbl>  <dbl> <dbl>   <dbl>   <dbl>  <dbl>
##  1 0800 08        022         7  8.3   31.8     20    20.3    18.9    9  
##  2 0800 08        022        44 16.1    5.09    35    35.2    29.2    9.5
##  3 0800 08        022        80 14.1   14.1     25    25.0    23.9   11.5
##  4 0800 08        022        83 14.6   14.1     30    29.0    23.7   13  
##  5 0800 08        022       106 15      5.09    40    38      32.7   10.5
##  6 0800 08        476        38  9.1   31.8     35    34      32.4    9  
##  7 0800 08        022        68  5.19  31.8     25    24.8    19.5   12.5
##  8 0800 08        021       107  6.59  31.8     45    43.4    39.5   11  
##  9 0800 08        021       114  5.09  31.8     35    36.8    32     12.5
## 10 0800 08        022       139  3.9  127.      25    27      25.4   12  
## #  with 35,447 more rows, and 4 more variables: growth <dbl>,
## #   BAIf2 <dbl>, BAIf3 <dbl>, BA_growth <dbl>

Or we could even use it to adjust a model to each group. In this case, we will apply a linear model to each species, relating height and diameter, but we could use any function created by us:

models <- trees %>%
 group_by(Especie) %>%
 do(mod=lm(HeiIf3 ~DiamIf3, data=.))

models

## Source: local data frame [91 x 2]
## Groups: <by row>
## 
## # A tibble: 91 x 2
##    Especie mod     
##  * <fct>   <list>  
##  1 004     <S3: lm>
##  2 008     <S3: lm>
##  3 012     <S3: lm>
##  4 013     <S3: lm>
##  5 014     <S3: lm>
##  6 015     <S3: lm>
##  7 016     <S3: lm>
##  8 017     <S3: lm>
##  9 019     <S3: lm>
## 10 021     <S3: lm>
## #  with 81 more rows
…
spread(species_unite, CD,n)

Other interesting functionalities of the tidyverse

Communication between packages

All the packages in the tidyverse are designed to communicate with each other. That means that we can combine dplyr and tidyr functions, connecting them trhough pipes (%>%). For example, if we wanted to know which the mean diameter distribution of all the pine species we could first filter the species we want to study (pines) then transform the data frame, group the data by species and diameter class and finally calculate the mean number of trees:

species %>%
    filter(Especie %in% c("021", "022","023", "024", "025", "026")) %>%
    gather(CD, n, CD_10:CD_70) %>%
    group_by(Especie,CD) %>%
    summarise(n_trees=mean(n))

## # A tibble: 78 x 3
## # Groups:   Especie [?]
##    Especie CD    n_trees
##    <fct>   <chr>   <dbl>
##  1 021     CD_10   55.4 
##  2 021     CD_15  121.  
##  3 021     CD_20  138.  
##  4 021     CD_25  109.  
##  5 021     CD_30   63.7 
##  6 021     CD_35   29.8 
##  7 021     CD_40   13.2 
##  8 021     CD_45    6.43
##  9 021     CD_50    3.00
## 10 021     CD_55    1.39
## #  with 68 more rows
…
av_growth

## Functional sequence with the following components:
## 
##  1. mutate(., growth = DiamIf3 - DiamIf2)
##  2. group_by(., Codi)
##  3. summarise(., mean = mean(growth), n = n())
## 
## Use 'functions' to extract the individual functions.

We can then apply this sequence to a data frame

    trees %>% av_growth()

## # A tibble: 7,713 x 3
##    Codi    mean     n
##    <fct>  <dbl> <int>
##  1 080001  3.33    15
##  2 080002  3.63    13
##  3 080003  5.93     7
##  4 080004  6.55     2
##  5 080005  2.08    12
##  6 080006  2.28    23
##  7 080007  2.45    35
##  8 080008  1.79    11
##  9 080009  1.86    16
## 10 080010  3.33    13
## #  with 7,703 more rows

 or combine it with new dplyr or tidyr functions

    trees %>%
        filter(Provincia=="17") %>%
        av_growth()

## # A tibble: 2,113 x 3
##    Codi    mean     n
##    <fct>  <dbl> <int>
##  1 170004  2.99    39
##  2 170005  1.86    28
##  3 170006  1.75    31
##  4 170007  3.14    29
##  5 170008  1.68     9
##  6 170009  1.48    28
##  7 170010  2.40    26
##  8 170012  2.11    21
##  9 170013  1.55    34
## 10 170014  5.38     8
## #  with 2,103 more rows
…
